Как из документа MS Word сделать таблицу, с которой удобно работать
…
Теперь в каждой из 9 таблиц в названиях столбцов 2-13 содержатся номера месяцев. Соберем с помощью функции gather() номера месяцев в переменную month, а значения грузооборота в переменную var.

for (i in seq_along(lst_tibbles)){ #функция gather выполняется для каждой таблицы из списка lst_tibbles
lst_tibbles[[i]] <- lst_tibbles[[i]] %>% 
    gather(`1`:`12`, key = 'month', value = 'var')
}
lst_tibbles[[1]] #просмотр первой таблицы

## # A tibble: 228 x 3
##     year month   var
##    <chr> <chr> <chr>
##  1  1999     1 283,3
##  2  2000     1 302,9
##  3  2001     1 307,4
##  4  2002     1 318,4
##  5  2003     1 347,6
##  6  2004     1 370,7
##  7  2005     1 386,0
##  8  2006     1 384,5
##  9  2007     1 408,1
## 10  2008     1 422,4
## # ... with 218 more rows
…
## # A tibble: 3 x 2
##    year na_count
##   <int>    <int>
## 1  1999       13
## 2  2014      216
## 3  2017       45

Пропущенные значения есть в 1999, 2014 и 2017 годах. В 1999 году пропуски связаны с недоступностью данных за прошлый период для расчета показателя в процентах к соответствующему периоду предыдущего года. В 2017 году пропуски соответствуют периоду, за который данные еще не появились. В 2014 году образовались дубликаты месяцев из-за того, что в исходных данных в некоторых местах в названии года присутствовали сноски со скобками, а мы их удалили уже после соединения таблиц с показателями грузооборота.

filter(turnover, year==2014, !complete.cases(turnover)) %>% 
  arrange(month)

## # A tibble: 36 x 11
##     year month total total_ppy total_ppm commercial commercial_ppy
##    <int> <int> <dbl>     <dbl>     <dbl>      <dbl>          <dbl>
##  1  2014     1 441.7        NA      96.8      434.7             NA
##  2  2014     1    NA     103.3        NA         NA          103.2
##  3  2014     1    NA        NA        NA         NA             NA
##  4  2014     2 396.3        NA      89.7      387.0             NA
##  5  2014     2    NA     101.1        NA         NA          100.8
##  6  2014     2    NA        NA        NA         NA             NA
##  7  2014     3 430.9        NA     108.7      422.0             NA
##  8  2014     3    NA     100.4        NA         NA          100.6
##  9  2014     3    NA        NA        NA         NA             NA
## 10  2014     4 414.5        NA      96.2      405.6             NA
## # ... with 26 more rows, and 4 more variables: commercial_ppm <dbl>,
## #   rail <dbl>, rail_ppy <dbl>, rail_ppm <dbl>
…
